// Jest Snapshot v1, https://goo.gl/fbAQLP

exports[`Action -  should return and update all scaned items 1`] = `
Object {
  "commentId": "COMM-A",
  "containerId": "CON-A",
  "conversationId": "CONV-A",
}
`;

exports[`Action -  should return and update all scaned items 2`] = `
Object {
  "commentId": "COMM-B",
  "containerId": "CON-B",
  "conversationId": "CONV-B",
}
`;

exports[`Action -  should return and update all scaned items 3`] = `
Object {
  "commentId": "COMM-C",
  "containerId": "CON-C",
  "conversationId": "CONV-C",
}
`;

exports[`Scan and Update -  should scan database from last Evaluated Key 1`] = `"database data scaned"`;

exports[`Scan and Update -  should scan database without last Evaluated Key 1`] = `"database data scaned"`;

exports[`Scan and Update -  should update data 1`] = `"database data updated"`;
